<?xml version="1.0" encoding="UTF-8" standalone="no"?>
<!-- Created with Inkscape (http://www.inkscape.org/) -->

<svg
   xmlns:dc="http://purl.org/dc/elements/1.1/"
   xmlns:cc="http://creativecommons.org/ns#"
   xmlns:rdf="http://www.w3.org/1999/02/22-rdf-syntax-ns#"
   xmlns:svg="http://www.w3.org/2000/svg"
   xmlns="http://www.w3.org/2000/svg"
   xmlns:sodipodi="http://sodipodi.sourceforge.net/DTD/sodipodi-0.dtd"
   xmlns:inkscape="http://www.inkscape.org/namespaces/inkscape"
   version="1.1"
   id="svg2"
   xml:space="preserve"
   width="374.02585"
   height="205.45889"
   viewBox="0 0 374.02585 205.45889"
   sodipodi:docname="figure_heap.svg"
   inkscape:version="0.92.4 5da689c313, 2019-01-14"><metadata
     id="metadata8"><rdf:RDF><cc:Work
         rdf:about=""><dc:format>image/svg+xml</dc:format><dc:type
           rdf:resource="http://purl.org/dc/dcmitype/StillImage" /><dc:title></dc:title></cc:Work></rdf:RDF></metadata><defs
     id="defs6" /><sodipodi:namedview
     pagecolor="#ffffff"
     bordercolor="#666666"
     borderopacity="1"
     objecttolerance="10"
     gridtolerance="10"
     guidetolerance="10"
     inkscape:pageopacity="0"
     inkscape:pageshadow="2"
     inkscape:window-width="1596"
     inkscape:window-height="870"
     id="namedview4"
     showgrid="false"
     inkscape:zoom="1.361181"
     inkscape:cx="148.75735"
     inkscape:cy="26.954294"
     inkscape:window-x="2"
     inkscape:window-y="28"
     inkscape:window-maximized="0"
     inkscape:current-layer="g10" /><g
     id="g10"
     inkscape:groupmode="layer"
     inkscape:label="figure_heap"
     transform="matrix(1.3333333,0,0,1.3333333,0,2.4698059e-6)"><g
       id="g1097"><g
         transform="translate(0,-1.5)"
         id="g1038"><g
           id="g954"><path
             d="m 27.184,129.223 -2.559,-2.555 20.473,-20.473 -0.813,-0.816 -20.473,20.473 -2.558,-2.555 0.086,2.879 0.082,2.883 2.879,0.082 z"
             style="fill:#000000;fill-opacity:0.98765396;fill-rule:nonzero;stroke:none"
             id="path68"
             inkscape:connector-curvature="0" /><path
             d="m 80.883,129.223 2.558,-2.555 -20.472,-20.473 0.812,-0.816 20.473,20.473 2.558,-2.555 -0.082,2.879 -0.085,2.883 -2.879,0.082 z"
             style="fill:#000000;fill-opacity:0.98765396;fill-rule:nonzero;stroke:none"
             id="path70"
             inkscape:connector-curvature="0" /></g><g
           id="g988"><path
             d="m 103.34678,140.96988 c 0,6.31419 -5.11621,11.43166 -11.4304,11.43166 -6.31545,0 -11.43166,-5.11747 -11.43166,-11.43166 0,-6.31545 5.11621,-11.43167 11.43166,-11.43167 6.31419,0 11.4304,5.11622 11.4304,11.43167 z"
             style="fill:#6699cc;fill-opacity:1;fill-rule:nonzero;stroke:#000000;stroke-width:0.90000004;stroke-miterlimit:4;stroke-dasharray:none"
             id="path956"
             inkscape:connector-curvature="0" /><path
             inkscape:connector-curvature="0"
             id="path958"
             style="fill:#6699cc;fill-opacity:1;fill-rule:nonzero;stroke:#000000;stroke-width:0.90000004;stroke-miterlimit:4;stroke-dasharray:none"
             d="m 27.58128,140.96988 c 0,6.31419 -5.11621,11.43166 -11.4304,11.43166 -6.31545,0 -11.43166,-5.11747 -11.43166,-11.43166 0,-6.31545 5.11621,-11.43167 11.43166,-11.43167 6.31419,0 11.4304,5.11622 11.4304,11.43167 z" /><text
             y="146.30809"
             x="11.51641"
             style="font-variant:normal;font-weight:500;font-size:14.64522266px;font-family:'Noto Sans Mono Med';-inkscape-font-specification:NotoSansMono-Medium;writing-mode:lr-tb;fill:#f2f2f2;fill-opacity:1;fill-rule:nonzero;stroke:none"
             id="text76"><tspan
               style="fill:#f2f2f2"
               x="11.51641"
               y="146.30809"
               id="tspan74">7</tspan></text>
<text
             y="147.15765"
             x="86.512337"
             style="font-variant:normal;font-weight:500;font-size:16.99874878px;font-family:'Noto Sans Mono Med';-inkscape-font-specification:NotoSansMono-Medium;writing-mode:lr-tb;fill:#f2f2f2;fill-opacity:1;fill-rule:nonzero;stroke:none"
             id="text82"><tspan
               style="fill:#f2f2f2"
               x="86.512337"
               y="147.15765"
               id="tspan80">8</tspan></text>
</g></g><g
         id="g1047"><g
           id="g1026"
           transform="translate(0,1.5)"><g
             id="g926"><path
               inkscape:connector-curvature="0"
               id="path20"
               style="fill:#000000;fill-opacity:0.98765396;fill-rule:nonzero;stroke:none"
               d="m 104.953,47.039 -1.805,-3.129 45.664,-26.367 -0.574,-0.996 -45.668,26.363 -1.804,-3.129 -1.336,5.61 z" /><path
               inkscape:connector-curvature="0"
               id="path22"
               style="fill:#000000;fill-opacity:0.98765396;fill-rule:nonzero;stroke:none"
               d="m 211.98,47.039 1.809,-3.129 -45.664,-26.367 0.574,-0.996 45.668,26.363 1.805,-3.129 0.668,2.805 0.664,2.805 -2.758,0.824 z" /></g><path
             d="m 169.89803,13.258 c 0,6.314189 -5.11621,11.431662 -11.4304,11.431662 -6.31545,0 -11.43166,-5.117473 -11.43166,-11.431662 0,-6.3154462 5.11621,-11.4316616 11.43166,-11.4316616 6.31419,0 11.4304,5.1162154 11.4304,11.4316616 z"
             style="fill:#6699cc;fill-opacity:1;fill-rule:nonzero;stroke:#000000;stroke-width:0.90000004;stroke-miterlimit:4;stroke-dasharray:none"
             id="path14"
             inkscape:connector-curvature="0" /></g><text
           id="text18"
           style="font-variant:normal;font-weight:500;font-size:16.99874878px;font-family:'Noto Sans Mono Med';-inkscape-font-specification:NotoSansMono-Medium;writing-mode:lr-tb;fill:#f2f2f2;fill-opacity:1;fill-rule:nonzero;stroke:none;"
           x="153.18164"
           y="19.632668"><tspan
             id="tspan16"
             y="19.632668"
             x="153.18164"
             style="fill:#f2f2f2;">0</tspan></text>
</g><g
         id="g1020"><g
           id="g1004"
           transform="translate(2.505e-4)"><g
             id="g936"><path
               inkscape:connector-curvature="0"
               id="path40"
               style="fill:#000000;fill-opacity:0.98765396;fill-rule:nonzero;stroke:none"
               d="m 251.848,86.492 2.554,-2.558 -20.472,-20.473 0.816,-0.813 20.473,20.473 2.554,-2.559 -0.164,5.766 -2.882,0.082 z" /><path
               inkscape:connector-curvature="0"
               id="path42"
               style="fill:#000000;fill-opacity:0.98765396;fill-rule:nonzero;stroke:none"
               d="m 198.145,86.492 -2.555,-2.558 20.472,-20.473 -0.816,-0.813 -20.473,20.473 -2.554,-2.559 0.164,5.766 2.879,0.082 z" /></g><g
             id="g932"><path
               inkscape:connector-curvature="0"
               id="path36"
               style="fill:#000000;fill-opacity:0.98765396;fill-rule:nonzero;stroke:none"
               d="m 65.09,86.492 -2.555,-2.558 20.473,-20.473 -0.817,-0.813 -20.472,20.473 -2.555,-2.559 0.164,5.766 2.879,0.082 z" /><path
               inkscape:connector-curvature="0"
               id="path38"
               style="fill:#000000;fill-opacity:0.98765396;fill-rule:nonzero;stroke:none"
               d="m 118.793,86.492 2.555,-2.558 -20.473,-20.473 0.816,-0.813 20.473,20.473 2.555,-2.559 -0.164,5.766 -2.883,0.082 z" /></g></g><g
           id="g996"><path
             d="m 236.42703,57.929596 c 0,6.314189 -5.11621,11.431662 -11.4304,11.431662 -6.31545,0 -11.43166,-5.117473 -11.43166,-11.431662 0,-6.315446 5.11621,-11.431662 11.43166,-11.431662 6.31419,0 11.4304,5.116216 11.4304,11.431662 z"
             style="fill:#6699cc;fill-opacity:1;fill-rule:nonzero;stroke:#000000;stroke-width:0.90000004;stroke-miterlimit:4;stroke-dasharray:none"
             id="path938"
             inkscape:connector-curvature="0" /><path
             inkscape:connector-curvature="0"
             id="path928"
             style="fill:#6699cc;fill-opacity:1;fill-rule:nonzero;stroke:#000000;stroke-width:0.90000004;stroke-miterlimit:4;stroke-dasharray:none"
             d="m 103.37253,57.929596 c 0,6.314189 -5.116207,11.431662 -11.430399,11.431662 -6.31545,0 -11.43166,-5.117473 -11.43166,-11.431662 0,-6.315446 5.11621,-11.431662 11.43166,-11.431662 6.314192,0 11.430399,5.116216 11.430399,11.431662 z" /><text
             y="64.125671"
             x="86.384537"
             style="font-variant:normal;font-weight:500;font-size:16.99874878px;font-family:'Noto Sans Mono Med';-inkscape-font-specification:NotoSansMono-Medium;writing-mode:lr-tb;fill:#f2f2f2;fill-opacity:1;fill-rule:nonzero;stroke:none"
             id="text28"><tspan
               style="fill:#f2f2f2"
               x="86.384537"
               y="64.125671"
               id="tspan26">1</tspan></text>
<text
             y="64.237724"
             x="219.8167"
             style="font-variant:normal;font-weight:500;font-size:16.99874878px;font-family:'Noto Sans Mono Med';-inkscape-font-specification:NotoSansMono-Medium;writing-mode:lr-tb;fill:#f2f2f2;fill-opacity:1;fill-rule:nonzero;stroke:none"
             id="text34"><tspan
               style="fill:#f2f2f2"
               x="219.8167"
               y="64.237724"
               id="tspan32">2</tspan></text>
</g></g><g
         id="g980"><path
           d="m 141.25528,98.038658 c 0,6.314192 -5.11621,11.431662 -11.4304,11.431662 -6.31545,0 -11.43166,-5.11747 -11.43166,-11.431662 0,-6.315446 5.11621,-11.431662 11.43166,-11.431662 6.31419,0 11.4304,5.116216 11.4304,11.431662 z"
           style="fill:#6699cc;fill-opacity:1;fill-rule:nonzero;stroke:#000000;stroke-width:0.90000004;stroke-miterlimit:4;stroke-dasharray:none"
           id="path944"
           inkscape:connector-curvature="0" /><path
           inkscape:connector-curvature="0"
           id="path946"
           style="fill:#6699cc;fill-opacity:1;fill-rule:nonzero;stroke:#000000;stroke-width:0.90000004;stroke-miterlimit:4;stroke-dasharray:none"
           d="m 65.48978,97.859501 c 0,6.314189 -5.11621,11.431659 -11.4304,11.431659 -6.31545,0 -11.43166,-5.11747 -11.43166,-11.431659 0,-6.315446 5.11621,-11.431662 11.43166,-11.431662 6.31419,0 11.4304,5.116216 11.4304,11.431662 z" /><text
           id="text48"
           style="font-variant:normal;font-weight:500;font-size:14.64522266px;font-family:'Noto Sans Mono Med';-inkscape-font-specification:NotoSansMono-Medium;writing-mode:lr-tb;fill:#f2f2f2;fill-opacity:1;fill-rule:nonzero;stroke:none"
           x="49.428486"
           y="103.19056"><tspan
             id="tspan46"
             y="103.19056"
             x="49.428486"
             style="fill:#f2f2f2">3</tspan></text>
<text
           id="text54"
           style="font-variant:normal;font-weight:500;font-size:16.99874878px;font-family:'Noto Sans Mono Med';-inkscape-font-specification:NotoSansMono-Medium;writing-mode:lr-tb;fill:#f2f2f2;fill-opacity:1;fill-rule:nonzero;stroke:none"
           x="124.47894"
           y="104.23473"><tspan
             id="tspan52"
             y="104.23473"
             x="124.47894"
             style="fill:#f2f2f2">4</tspan></text>
</g><g
         id="g972"><path
           inkscape:connector-curvature="0"
           id="path942"
           style="fill:#6699cc;fill-opacity:1;fill-rule:nonzero;stroke:#000000;stroke-width:0.90000004;stroke-miterlimit:4;stroke-dasharray:none"
           d="m 274.31003,97.859501 c 0,6.314189 -5.11621,11.431659 -11.4304,11.431659 -6.31545,0 -11.43166,-5.11747 -11.43166,-11.431659 0,-6.315446 5.11621,-11.431662 11.43166,-11.431662 6.31419,0 11.4304,5.116216 11.4304,11.431662 z" /><path
           d="m 198.54453,97.859501 c 0,6.314189 -5.11621,11.431659 -11.4304,11.431659 -6.31545,0 -11.43166,-5.11747 -11.43166,-11.431659 0,-6.315446 5.11621,-11.431662 11.43166,-11.431662 6.31419,0 11.4304,5.116216 11.4304,11.431662 z"
           style="fill:#6699cc;fill-opacity:1;fill-rule:nonzero;stroke:#000000;stroke-width:0.90000004;stroke-miterlimit:4;stroke-dasharray:none"
           id="path940"
           inkscape:connector-curvature="0" /><text
           id="text60"
           style="font-variant:normal;font-weight:500;font-size:16.99874878px;font-family:'Noto Sans Mono Med';-inkscape-font-specification:NotoSansMono-Medium;writing-mode:lr-tb;fill:#f2f2f2;fill-opacity:1;fill-rule:nonzero;stroke:none"
           x="181.79309"
           y="103.93523"><tspan
             id="tspan58"
             y="103.93523"
             x="181.79309"
             style="fill:#f2f2f2">5</tspan></text>
<text
           id="text66"
           style="font-variant:normal;font-weight:500;font-size:16.99874878px;font-family:'Noto Sans Mono Med';-inkscape-font-specification:NotoSansMono-Medium;writing-mode:lr-tb;fill:#f2f2f2;fill-opacity:1;fill-rule:nonzero;stroke:none"
           x="257.41333"
           y="104.04728"><tspan
             id="tspan64"
             y="104.04728"
             x="257.41333"
             style="fill:#f2f2f2">6</tspan></text>
</g></g></g></svg>