<?xml version="1.0" encoding="UTF-8" standalone="no"?>
<!-- Created with Inkscape (http://www.inkscape.org/) -->

<svg
   xmlns:dc="http://purl.org/dc/elements/1.1/"
   xmlns:cc="http://creativecommons.org/ns#"
   xmlns:rdf="http://www.w3.org/1999/02/22-rdf-syntax-ns#"
   xmlns:svg="http://www.w3.org/2000/svg"
   xmlns="http://www.w3.org/2000/svg"
   xmlns:sodipodi="http://sodipodi.sourceforge.net/DTD/sodipodi-0.dtd"
   xmlns:inkscape="http://www.inkscape.org/namespaces/inkscape"
   version="1.1"
   id="svg2"
   xml:space="preserve"
   width="706.01581"
   height="203.55023"
   viewBox="0 0 706.01581 203.55023"
   sodipodi:docname="rectangle.svg"
   inkscape:version="0.92.4 5da689c313, 2019-01-14"><metadata
     id="metadata8"><rdf:RDF><cc:Work
         rdf:about=""><dc:format>image/svg+xml</dc:format><dc:type
           rdf:resource="http://purl.org/dc/dcmitype/StillImage" /><dc:title></dc:title></cc:Work></rdf:RDF></metadata><defs
     id="defs6" /><sodipodi:namedview
     pagecolor="#ffffff"
     bordercolor="#666666"
     borderopacity="1"
     objecttolerance="10"
     gridtolerance="10"
     guidetolerance="10"
     inkscape:pageopacity="0"
     inkscape:pageshadow="2"
     inkscape:window-width="1596"
     inkscape:window-height="870"
     id="namedview4"
     showgrid="false"
     inkscape:snap-smooth-nodes="true"
     inkscape:snap-intersection-paths="true"
     inkscape:object-paths="true"
     inkscape:zoom="1.0198072"
     inkscape:cx="279.64471"
     inkscape:cy="120.14607"
     inkscape:window-x="2"
     inkscape:window-y="28"
     inkscape:window-maximized="0"
     inkscape:current-layer="g10" /><g
     id="g10"
     inkscape:groupmode="layer"
     inkscape:label="rectangle"
     transform="matrix(1.3333333,0,0,1.3333333,0,3.0887558e-6)"><g
       id="g1376"
       transform="translate(-3,-1.5)"><g
         transform="translate(1.5)"
         id="g1250"><text
           id="text998"
           y="68.909897"
           x="335.81033"
           style="font-style:normal;font-weight:normal;font-size:21.53748131px;line-height:1.25;font-family:sans-serif;letter-spacing:0px;word-spacing:0px;fill:#000000;fill-opacity:1;stroke:none;stroke-width:0.53843701"
           xml:space="preserve"><tspan
             style="font-style:normal;font-variant:normal;font-weight:bold;font-stretch:normal;font-family:Inconsolata;-inkscape-font-specification:'Inconsolata Bold';stroke-width:0.53843701"
             y="68.909897"
             x="335.81033"
             id="tspan996"
             sodipodi:role="line">Punto2D</tspan></text>
<g
           id="g1227"><g
             id="g1012"><path
               d="m 339.512,73.957 h 177.363 c 0.625,0 1.129,0.504 1.129,1.129 v 74.199 c 0,0.625 -0.504,1.129 -1.129,1.129 H 339.512 c -0.625,0 -1.129,-0.504 -1.129,-1.129 V 75.086 c 0,-0.625 0.504,-1.129 1.129,-1.129 z"
               style="fill:#cccccc;fill-opacity:1;fill-rule:nonzero;stroke:none"
               id="path992"
               inkscape:connector-curvature="0" /><path
               inkscape:connector-curvature="0"
               id="path38"
               style="fill:#e7e7e7;fill-opacity:1;fill-rule:nonzero;stroke:none"
               d="m 338.012,72.457 h 177.363 c 0.625,0 1.129,0.504 1.129,1.129 v 74.199 c 0,0.625 -0.504,1.129 -1.129,1.129 H 338.012 c -0.625,0 -1.129,-0.504 -1.129,-1.129 V 73.586 c 0,-0.625 0.504,-1.129 1.129,-1.129 z" /></g><g
             transform="translate(3.35326,3.728779)"
             id="g1090"><g
               id="g1066"><text
                 xml:space="preserve"
                 style="font-style:normal;font-weight:normal;font-size:21.53748131px;line-height:1.25;font-family:sans-serif;letter-spacing:0px;word-spacing:0px;fill:#000000;fill-opacity:1;stroke:none;stroke-width:0.53843701"
                 x="339.22647"
                 y="98.108528"
                 id="text1016"><tspan
                   sodipodi:role="line"
                   id="tspan1014"
                   x="339.22647"
                   y="98.108528"
                   style="font-style:normal;font-variant:normal;font-weight:normal;font-stretch:normal;font-family:Inconsolata;-inkscape-font-specification:Inconsolata;stroke-width:0.53843701">abscisa</tspan></text>
<g
                 id="g1024"
                 transform="translate(238.17363,46.802678)"><path
                   inkscape:connector-curvature="0"
                   id="path1018"
                   style="fill:#000000;fill-opacity:0.98765396;fill-rule:nonzero;stroke:none"
                   d="m 227.332,40.087666 v 3.641 H 198.18 v 1.16 h 29.152 v 3.636 l 1.992,-2.109 1.996,-2.109 -1.996,-2.11 z" /><text
                   id="text1022"
                   y="50.896637"
                   x="238.86183"
                   style="font-style:normal;font-weight:normal;font-size:21.53748131px;line-height:1.25;font-family:sans-serif;letter-spacing:0px;word-spacing:0px;fill:#000000;fill-opacity:1;stroke:none;stroke-width:0.53843701"
                   xml:space="preserve"><tspan
                     style="font-style:normal;font-variant:normal;font-weight:normal;font-stretch:normal;font-family:Inconsolata;-inkscape-font-specification:Inconsolata;stroke-width:0.53843701"
                     y="50.896637"
                     x="238.86183"
                     id="tspan1020"
                     sodipodi:role="line">3.0</tspan></text>
</g></g><g
               id="g1074"><text
                 id="text1036"
                 y="131.39043"
                 x="339.22647"
                 style="font-style:normal;font-weight:normal;font-size:21.53748131px;line-height:1.25;font-family:sans-serif;letter-spacing:0px;word-spacing:0px;fill:#000000;fill-opacity:1;stroke:none;stroke-width:0.53843701"
                 xml:space="preserve"><tspan
                   style="font-style:normal;font-variant:normal;font-weight:normal;font-stretch:normal;font-family:Inconsolata;-inkscape-font-specification:Inconsolata;stroke-width:0.53843701"
                   y="131.39043"
                   x="339.22647"
                   id="tspan1034"
                   sodipodi:role="line">ordenada</tspan></text>
<g
                 transform="translate(238.17363,80.084578)"
                 id="g1044"><path
                   d="m 227.332,40.087666 v 3.641 H 198.18 v 1.16 h 29.152 v 3.636 l 1.992,-2.109 1.996,-2.109 -1.996,-2.11 z"
                   style="fill:#000000;fill-opacity:0.98765396;fill-rule:nonzero;stroke:none"
                   id="path1038"
                   inkscape:connector-curvature="0" /><text
                   xml:space="preserve"
                   style="font-style:normal;font-weight:normal;font-size:21.53748131px;line-height:1.25;font-family:sans-serif;letter-spacing:0px;word-spacing:0px;fill:#000000;fill-opacity:1;stroke:none;stroke-width:0.53843701"
                   x="238.86183"
                   y="50.896637"
                   id="text1042"><tspan
                     sodipodi:role="line"
                     id="tspan1040"
                     x="238.86183"
                     y="50.896637"
                     style="font-style:normal;font-variant:normal;font-weight:normal;font-stretch:normal;font-family:Inconsolata;-inkscape-font-specification:Inconsolata;stroke-width:0.53843701">4.0</tspan></text>
</g></g></g></g></g><g
         id="g1317"><g
           id="g1178"
           transform="translate(-4.5)"><path
             d="m 97.168,37.086 v 3.641 H 68.016 v 1.16 h 29.152 v 3.636 l 1.992,-2.109 1.996,-2.109 -1.996,-2.11 z"
             style="fill:#000000;fill-opacity:0.98765396;fill-rule:nonzero;stroke:none"
             id="path60"
             inkscape:connector-curvature="0" /><text
             id="text902"
             y="47.571907"
             x="18.067669"
             style="font-style:normal;font-weight:normal;font-size:21.53748131px;line-height:1.25;font-family:sans-serif;letter-spacing:0px;word-spacing:0px;fill:#000000;fill-opacity:1;stroke:none;stroke-width:0.53843701"
             xml:space="preserve"><tspan
               style="font-style:normal;font-variant:normal;font-weight:normal;font-stretch:normal;font-family:Inconsolata;-inkscape-font-specification:Inconsolata;stroke-width:0.53843701"
               y="47.571907"
               x="18.067669"
               id="tspan900"
               sodipodi:role="line">rect</tspan></text>
</g><g
           id="g1281"><text
             id="text910"
             y="19.767082"
             x="102.09291"
             style="font-style:normal;font-weight:normal;font-size:21.53748131px;line-height:1.25;font-family:sans-serif;letter-spacing:0px;word-spacing:0px;fill:#000000;fill-opacity:1;stroke:none;stroke-width:0.53843701"
             xml:space="preserve"><tspan
               style="font-style:normal;font-variant:normal;font-weight:bold;font-stretch:normal;font-family:Inconsolata;-inkscape-font-specification:'Inconsolata Bold';stroke-width:0.53843701"
               y="19.767082"
               x="102.09291"
               id="tspan908"
               sodipodi:role="line">Rectángulo</tspan></text>
<g
             transform="translate(0,-1.3408661e-6)"
             id="g949"><path
               d="m 227.332,40.087666 v 3.641 H 198.18 v 1.16 h 29.152 v 3.636 l 1.992,-2.109 1.996,-2.109 -1.996,-2.11 z"
               style="fill:#000000;fill-opacity:0.98765396;fill-rule:nonzero;stroke:none"
               id="path934"
               inkscape:connector-curvature="0" /><text
               xml:space="preserve"
               style="font-style:normal;font-weight:normal;font-size:21.53748131px;line-height:1.25;font-family:sans-serif;letter-spacing:0px;word-spacing:0px;fill:#000000;fill-opacity:1;stroke:none;stroke-width:0.53843701"
               x="238.86183"
               y="50.896637"
               id="text940"><tspan
                 sodipodi:role="line"
                 id="tspan938"
                 x="238.86183"
                 y="50.896637"
                 style="font-style:normal;font-variant:normal;font-weight:normal;font-stretch:normal;font-family:Inconsolata;-inkscape-font-specification:Inconsolata;stroke-width:0.53843701">5</tspan></text>
</g><g
             id="g1202"><g
               id="g1096"
               transform="matrix(1.1272745,0,0,1.1272745,-277.49544,-57.212502)"><path
                 d="m 339.512,73.957 h 177.363 c 0.625,0 1.129,0.504 1.129,1.129 v 74.199 c 0,0.625 -0.504,1.129 -1.129,1.129 H 339.512 c -0.625,0 -1.129,-0.504 -1.129,-1.129 V 75.086 c 0,-0.625 0.504,-1.129 1.129,-1.129 z"
                 style="fill:#cccccc;fill-opacity:1;fill-rule:nonzero;stroke:none"
                 id="path1092"
                 inkscape:connector-curvature="0" /><path
                 inkscape:connector-curvature="0"
                 id="path1094"
                 style="fill:#e7e7e7;fill-opacity:1;fill-rule:nonzero;stroke:none"
                 d="m 338.012,72.457 h 177.363 c 0.625,0 1.129,0.504 1.129,1.129 v 74.199 c 0,0.625 -0.504,1.129 -1.129,1.129 H 338.012 c -0.625,0 -1.129,-0.504 -1.129,-1.129 V 73.586 c 0,-0.625 0.504,-1.129 1.129,-1.129 z" /></g><g
               id="g1166"
               transform="translate(0,-2.2816027)"><g
                 id="g975"><path
                   inkscape:connector-curvature="0"
                   id="path36"
                   style="fill:#000000;fill-opacity:0.98765396;fill-rule:nonzero;stroke:none"
                   d="m 327.059,91.265327 v 3.64 H 198.18 v 1.16 h 128.879 v 3.640997 l 1.992,-2.112997 1.996,-2.11 -1.996,-2.109 z" /><text
                   id="text918"
                   y="100.75174"
                   x="114.57362"
                   style="font-style:normal;font-weight:normal;font-size:21.53748131px;line-height:1.25;font-family:sans-serif;letter-spacing:0px;word-spacing:0px;fill:#000000;fill-opacity:1;stroke:none;stroke-width:0.53843701"
                   xml:space="preserve"><tspan
                     style="font-style:normal;font-variant:normal;font-weight:normal;font-stretch:normal;font-family:Inconsolata;-inkscape-font-specification:Inconsolata;stroke-width:0.53843701"
                     y="100.75174"
                     x="114.57362"
                     id="tspan916"
                     sodipodi:role="line">esquina</tspan></text>
</g><g
                 id="g1146"><text
                   xml:space="preserve"
                   style="font-style:normal;font-weight:normal;font-size:21.53748131px;line-height:1.25;font-family:sans-serif;letter-spacing:0px;word-spacing:0px;fill:#000000;fill-opacity:1;stroke:none;stroke-width:0.53843701"
                   x="114.57362"
                   y="76.147247"
                   id="text914"><tspan
                     sodipodi:role="line"
                     id="tspan912"
                     x="114.57362"
                     y="76.147247"
                     style="font-style:normal;font-variant:normal;font-weight:normal;font-stretch:normal;font-family:Inconsolata;-inkscape-font-specification:Inconsolata;stroke-width:0.53843701">altura</tspan></text>
<g
                   id="g954"
                   transform="translate(0,-0.28161815)"><path
                     d="m 227.332,65.167608 v 3.641 H 198.18 v 1.16 h 29.152 v 3.636 l 1.992,-2.109 1.996,-2.109 -1.996,-2.11 z"
                     style="fill:#000000;fill-opacity:0.98765396;fill-rule:nonzero;stroke:none"
                     id="path936"
                     inkscape:connector-curvature="0" /><text
                     xml:space="preserve"
                     style="font-style:normal;font-weight:normal;font-size:21.53748131px;line-height:1.25;font-family:sans-serif;letter-spacing:0px;word-spacing:0px;fill:#000000;fill-opacity:1;stroke:none;stroke-width:0.53843701"
                     x="238.86183"
                     y="76.019653"
                     id="text944"><tspan
                       sodipodi:role="line"
                       id="tspan942"
                       x="238.86183"
                       y="76.019653"
                       style="font-style:normal;font-variant:normal;font-weight:normal;font-stretch:normal;font-family:Inconsolata;-inkscape-font-specification:Inconsolata;stroke-width:0.53843701">10</tspan></text>
</g><g
                   id="g1131"><text
                     xml:space="preserve"
                     style="font-style:normal;font-weight:normal;font-size:21.53748131px;line-height:1.25;font-family:sans-serif;letter-spacing:0px;word-spacing:0px;fill:#000000;fill-opacity:1;stroke:none;stroke-width:0.53843701"
                     x="114.57362"
                     y="51.348923"
                     id="text906"><tspan
                       sodipodi:role="line"
                       id="tspan904"
                       x="114.57362"
                       y="51.348923"
                       style="font-style:normal;font-variant:normal;font-weight:normal;font-stretch:normal;font-family:Inconsolata;-inkscape-font-specification:Inconsolata;stroke-width:0.53843701">ancho</tspan></text>
<g
                     id="g1123"
                     transform="translate(0,-25.079943)"><path
                       d="m 227.332,65.167608 v 3.641 H 198.18 v 1.16 h 29.152 v 3.636 l 1.992,-2.109 1.996,-2.109 -1.996,-2.11 z"
                       style="fill:#000000;fill-opacity:0.98765396;fill-rule:nonzero;stroke:none"
                       id="path1117"
                       inkscape:connector-curvature="0" /><text
                       xml:space="preserve"
                       style="font-style:normal;font-weight:normal;font-size:21.53748131px;line-height:1.25;font-family:sans-serif;letter-spacing:0px;word-spacing:0px;fill:#000000;fill-opacity:1;stroke:none;stroke-width:0.53843701"
                       x="238.86183"
                       y="76.019653"
                       id="text1121"><tspan
                         sodipodi:role="line"
                         id="tspan1119"
                         x="238.86183"
                         y="76.019653"
                         style="font-style:normal;font-variant:normal;font-weight:normal;font-stretch:normal;font-family:Inconsolata;-inkscape-font-specification:Inconsolata;stroke-width:0.53843701">5</tspan></text>
</g></g></g></g></g></g></g></g></g></svg>